…
# settings only
term_table %>% 
  dplyr::filter(component == "setting")
#> # A tibble: 503 × 26
#>    term           component china1999 dukecommunity20… dukestudent2015 egypt2015
#>    <chr>          <chr>         <dbl>            <dbl>           <dbl>     <dbl>
#>  1 acrobatics     setting           1                0               0         0
#>  2 adult_booksto… setting           1                0               0         0
#>  3 adult_educati… setting           1                0               0         0
#>  4 airplane       setting           1                0               0         0
#>  5 airport        setting           1                0               0         0
#>  6 altar          setting           1                0               0         0
#>  7 ambulance      setting           1                0               0         0
#>  8 amusement_park setting           1                0               0         0
#>  9 apartment      setting           1                0               0         0
#> 10 art_gallery    setting           1                0               0         0
#> # … with 493 more rows, and 20 more variables: expressive2002 <dbl>,
#> #   gaymensanfrancisco1980 <dbl>, germany1989 <dbl>, germany2007 <dbl>,
#> #   household1994 <dbl>, indiana2003 <dbl>,
#> #   internationaldomesticrelations1981 <dbl>, internet1998 <dbl>,
#> #   japan1995 <dbl>, morocco2015 <dbl>, nc1978 <dbl>, nireland1977 <dbl>,
#> #   ontario1980 <dbl>, ontario2001 <dbl>, politics2003 <dbl>, texas1998 <dbl>,
#> #   uga2015 <dbl>, usfullsurveyor2015 <dbl>, usmturk2015 <dbl>, …

# limit to only the two Germany dictionaries and exclude terms in neither
term_table %>% 
  dplyr::select(term, component, germany1989, germany2007) %>% 
  dplyr::filter(germany1989 + germany2007 >= 1)
#> # A tibble: 1,658 × 4
#>    term          component germany1989 germany2007
#>    <chr>         <chr>           <dbl>       <dbl>
#>  1 abandon       behavior            0           1
#>  2 absent_minded modifier            0           1
#>  3 abuse         behavior            0           1
#>  4 academic      identity            1           1
#>  5 accountant    identity            1           0
#>  6 accuse        behavior            0           1
#>  7 accuser       identity            1           0
#>  8 acquaintance  identity            1           1
#>  9 active        modifier            0           1
#> 10 admire        behavior            0           1
#> # … with 1,648 more rows
…
